{
  "identifiant": "ttiti",
  "roles": [
    {
      "id": 2,
      "role": "ROLE_USER"
    }
  ],
  "personne": {
    "id": 2,
    "nom": "TITI",
    "prenom": "titi",
    "type": "FORMATEUR",
    "filiere": null,
    "modules": [
      {
        "id": 1,
        "libelle": "Projet Java"
      }
    ]
  }
}